<svg id="google" xmlns="http://www.w3.org/2000/svg" width="25.882" height="25.882" viewBox="0 0 25.882 25.882">
  <path id="Caminho_1358" data-name="Caminho 1358" d="M255.649,199.032a12.908,12.908,0,0,0-.227-2.417.759.759,0,0,0-.745-.616H242.758a.758.758,0,0,0-.758.758v4.55a.758.758,0,0,0,.758.758h6.115a6.791,6.791,0,0,1-1.523,2l4.286,4.286A12.843,12.843,0,0,0,255.649,199.032Z" transform="translate(-229.767 -186.091)" fill="#fff"/>
  <path id="Caminho_1359" data-name="Caminho 1359" d="M55.346,6.066a6.756,6.756,0,0,1,4.092,1.367.757.757,0,0,0,.992-.07l3.236-3.236a.759.759,0,0,0-.049-1.117A12.877,12.877,0,0,0,44.663,5.685l4.451,4.451A6.826,6.826,0,0,1,55.346,6.066Z" transform="translate(-42.405)" fill="#fff"/>
  <path id="Caminho_1360" data-name="Caminho 1360" d="M55.346,321.636a12.806,12.806,0,0,0,7.714-2.588l-4.366-4.366a6.793,6.793,0,0,1-9.581-3.182l-4.451,4.451A12.888,12.888,0,0,0,55.346,321.636Z" transform="translate(-42.405 -295.753)" fill="#fff"/>
  <path id="Caminho_1361" data-name="Caminho 1361" d="M6.177,147.213a5.457,5.457,0,0,1,0-2.184l-4.758-4.758a12.773,12.773,0,0,0,0,11.7Z" transform="translate(0 -133.18)" fill="#fff"/>
</svg>
